[
  {
    "id": 0,
    "bookId": 19,
    "header": "Praesent id massa id nisl venenatis lacinia. Aenean sit amet justo. Morbi ut odio.",
    "content": "Nam ultrices, libero non mattis pulvinar, nulla pede ullamcorper augue, a suscipit nulla elit ac nulla. Sed vel enim sit amet nunc viverra dapibus. Nulla suscipit ligula in lacus.",
    "rate": 1,
    "commentDate": "6/20/2023"
  },
  {
    "id": 1,
    "bookId": 14,
    "header": "Duis bibendum, felis sed interdum venenatis, turpis enim blandit mi, in porttitor pede justo eu massa. Donec dapibus. Duis at velit eu est congue elementum.",
    "content": "Duis consequat dui nec nisi volutpat eleifend. Donec ut dolor. Morbi vel lectus in quam fringilla rhoncus.",
    "rate": 2,
    "commentDate": "1/20/2023"
  },
  {
    "id": 2,
    "bookId": 9,
    "header": "Donec diam neque, vestibulum eget, vulputate ut, ultrices vel, augue. Vestibulum ante ipsum primis in faucibus orci luctus et ultrices posuere cubilia Curae; Donec pharetra, magna vestibulum aliquet ultrices, erat tortor sollicitudin mi, sit amet lobortis sapien sapien non mi. Integer ac neque.",
    "content": "Sed ante. Vivamus tortor. Duis mattis egestas metus.",
    "rate": 1,
    "commentDate": "1/6/2023"
  },
  {
    "id": 3,
    "bookId": 13,
    "header": "Nulla ut erat id mauris vulputate elementum. Nullam varius. Nulla facilisi.",
    "content": "Fusce consequat. Nulla nisl. Nunc nisl.",
    "rate": 1,
    "commentDate": "6/1/2023"
  },
  {
    "id": 4,
    "bookId": 17,
    "header": "Nullam sit amet turpis elementum ligula vehicula consequat. Morbi a ipsum. Integer a nibh.",
    "content": "Curabitur in libero ut massa volutpat convallis. Morbi odio odio, elementum eu, interdum eu, tincidunt in, leo. Maecenas pulvinar lobortis est.",
    "rate": 3,
    "commentDate": "12/27/2022"
  },
  {
    "id": 5,
    "bookId": 5,
    "header": "In congue. Etiam justo. Etiam pretium iaculis justo.",
    "content": "Praesent id massa id nisl venenatis lacinia. Aenean sit amet justo. Morbi ut odio.",
    "rate": 1,
    "commentDate": "10/23/2022"
  },
  {
    "id": 6,
    "bookId": 2,
    "header": "Fusce consequat. Nulla nisl. Nunc nisl.",
    "content": "Maecenas leo odio, condimentum id, luctus nec, molestie sed, justo. Pellentesque viverra pede ac diam. Cras pellentesque volutpat dui.",
    "rate": 2,
    "commentDate": "1/13/2023"
  },
  {
    "id": 7,
    "bookId": 2,
    "header": "Pellentesque at nulla. Suspendisse potenti. Cras in purus eu magna vulputate luctus.",
    "content": "In congue. Etiam justo. Etiam pretium iaculis justo.",
    "rate": 1,
    "commentDate": "12/3/2022"
  },
  {
    "id": 8,
    "bookId": 18,
    "header": "Sed sagittis. Nam congue, risus semper porta volutpat, quam pede lobortis ligula, sit amet eleifend pede libero quis orci. Nullam molestie nibh in lectus.",
    "content": "In hac habitasse platea dictumst. Morbi vestibulum, velit id pretium iaculis, diam erat fermentum justo, nec condimentum neque sapien placerat ante. Nulla justo.",
    "rate": 1,
    "commentDate": "4/2/2023"
  },
  {
    "id": 9,
    "bookId": 7,
    "header": "Maecenas leo odio, condimentum id, luctus nec, molestie sed, justo. Pellentesque viverra pede ac diam. Cras pellentesque volutpat dui.",
    "content": "Proin eu mi. Nulla ac enim. In tempor, turpis nec euismod scelerisque, quam turpis adipiscing lorem, vitae mattis nibh ligula nec sem.",
    "rate": 1,
    "commentDate": "5/3/2023"
  },
  {
    "id": 10,
    "bookId": 7,
    "header": "Maecenas leo odio, condimentum id, luctus nec, molestie sed, justo. Pellentesque viverra pede ac diam. Cras pellentesque volutpat dui.",
    "content": "Pellentesque at nulla. Suspendisse potenti. Cras in purus eu magna vulputate luctus.",
    "rate": 2,
    "commentDate": "3/18/2023"
  },
  {
    "id": 11,
    "bookId": 12,
    "header": "Integer ac leo. Pellentesque ultrices mattis odio. Donec vitae nisi.",
    "content": "Praesent id massa id nisl venenatis lacinia. Aenean sit amet justo. Morbi ut odio.",
    "rate": 2,
    "commentDate": "12/16/2022"
  },
  {
    "id": 12,
    "bookId": 15,
    "header": "In hac habitasse platea dictumst. Etiam faucibus cursus urna. Ut tellus.",
    "content": "In hac habitasse platea dictumst. Morbi vestibulum, velit id pretium iaculis, diam erat fermentum justo, nec condimentum neque sapien placerat ante. Nulla justo.",
    "rate": 2,
    "commentDate": "3/9/2023"
  },
  {
    "id": 13,
    "bookId": 13,
    "header": "Proin eu mi. Nulla ac enim. In tempor, turpis nec euismod scelerisque, quam turpis adipiscing lorem, vitae mattis nibh ligula nec sem.",
    "content": "Mauris enim leo, rhoncus sed, vestibulum sit amet, cursus id, turpis. Integer aliquet, massa id lobortis convallis, tortor risus dapibus augue, vel accumsan tellus nisi eu orci. Mauris lacinia sapien quis libero.",
    "rate": 1,
    "commentDate": "6/11/2023"
  },
  {
    "id": 14,
    "bookId": 3,
    "header": "Nullam sit amet turpis elementum ligula vehicula consequat. Morbi a ipsum. Integer a nibh.",
    "content": "Quisque porta volutpat erat. Quisque erat eros, viverra eget, congue eget, semper rutrum, nulla. Nunc purus.",
    "rate": 2,
    "commentDate": "2/2/2023"
  },
  {
    "id": 15,
    "bookId": 11,
    "header": "Mauris enim leo, rhoncus sed, vestibulum sit amet, cursus id, turpis. Integer aliquet, massa id lobortis convallis, tortor risus dapibus augue, vel accumsan tellus nisi eu orci. Mauris lacinia sapien quis libero.",
    "content": "Morbi porttitor lorem id ligula. Suspendisse ornare consequat lectus. In est risus, auctor sed, tristique in, tempus sit amet, sem.",
    "rate": 1,
    "commentDate": "9/8/2023"
  },
  {
    "id": 16,
    "bookId": 5,
    "header": "Curabitur gravida nisi at nibh. In hac habitasse platea dictumst. Aliquam augue quam, sollicitudin vitae, consectetuer eget, rutrum at, lorem.",
    "content": "Curabitur gravida nisi at nibh. In hac habitasse platea dictumst. Aliquam augue quam, sollicitudin vitae, consectetuer eget, rutrum at, lorem.",
    "rate": 1,
    "commentDate": "8/17/2023"
  },
  {
    "id": 17,
    "bookId": 2,
    "header": "Morbi non lectus. Aliquam sit amet diam in magna bibendum imperdiet. Nullam orci pede, venenatis non, sodales sed, tincidunt eu, felis.",
    "content": "Integer ac leo. Pellentesque ultrices mattis odio. Donec vitae nisi.",
    "rate": 1,
    "commentDate": "11/27/2022"
  },
  {
    "id": 18,
    "bookId": 18,
    "header": "Quisque porta volutpat erat. Quisque erat eros, viverra eget, congue eget, semper rutrum, nulla. Nunc purus.",
    "content": "Quisque id justo sit amet sapien dignissim vestibulum. Vestibulum ante ipsum primis in faucibus orci luctus et ultrices posuere cubilia Curae; Nulla dapibus dolor vel est. Donec odio justo, sollicitudin ut, suscipit a, feugiat et, eros.",
    "rate": 3,
    "commentDate": "2/23/2023"
  },
  {
    "id": 19,
    "bookId": 2,
    "header": "In congue. Etiam justo. Etiam pretium iaculis justo.",
    "content": "Cras non velit nec nisi vulputate nonummy. Maecenas tincidunt lacus at velit. Vivamus vel nulla eget eros elementum pellentesque.",
    "rate": 1,
    "commentDate": "1/8/2023"
  }
]