[
  {
    "id": 0,
    "loanId": 0,
    "bookId": 15,
    "quantity": 2
  },
  {
    "id": 1,
    "loanId": 1,
    "bookId": 5,
    "quantity": 2
  },
  {
    "id": 2,
    "loanId": 2,
    "bookId": 15,
    "quantity": 1
  },
  {
    "id": 3,
    "loanId": 3,
    "bookId": 11,
    "quantity": 1
  },
  {
    "id": 4,
    "loanId": 4,
    "bookId": 8,
    "quantity": 2
  },
  {
    "id": 5,
    "loanId": 5,
    "bookId": 13,
    "quantity": 1
  },
  {
    "id": 6,
    "loanId": 6,
    "bookId": 12,
    "quantity": 2
  },
  {
    "id": 7,
    "loanId": 7,
    "bookId": 2,
    "quantity": 2
  },
  {
    "id": 8,
    "loanId": 8,
    "bookId": 15,
    "quantity": 1
  },
  {
    "id": 9,
    "loanId": 9,
    "bookId": 8,
    "quantity": 2
  },
  {
    "id": 10,
    "loanId": 10,
    "bookId": 17,
    "quantity": 1
  },
  {
    "id": 11,
    "loanId": 11,
    "bookId": 0,
    "quantity": 2
  },
  {
    "id": 12,
    "loanId": 12,
    "bookId": 10,
    "quantity": 1
  },
  {
    "id": 13,
    "loanId": 13,
    "bookId": 3,
    "quantity": 2
  },
  {
    "id": 14,
    "loanId": 14,
    "bookId": 9,
    "quantity": 1
  },
  {
    "id": 15,
    "loanId": 15,
    "bookId": 8,
    "quantity": 1
  },
  {
    "id": 16,
    "loanId": 16,
    "bookId": 0,
    "quantity": 2
  },
  {
    "id": 17,
    "loanId": 17,
    "bookId": 3,
    "quantity": 2
  },
  {
    "id": 18,
    "loanId": 18,
    "bookId": 1,
    "quantity": 1
  },
  {
    "id": 19,
    "loanId": 19,
    "bookId": 15,
    "quantity": 1
  }
]