﻿[
  {
    "Id": 1,
    "Name": "Carrots - Purple, Organic",
    "CategoryId": 2,
    "Price": 348
  },
  {
    "Id": 2,
    "Name": "Chicken - Leg, Fresh",
    "CategoryId": 1,
    "Price": 204
  },
  {
    "Id": 3,
    "Name": "Ecolab - Hobart Upr Prewash Arm",
    "CategoryId": 2,
    "Price": 420
  },
  {
    "Id": 4,
    "Name": "Cranberries - Frozen",
    "CategoryId": 6,
    "Price": 317
  },
  {
    "Id": 5,
    "Name": "Crackers - Trio",
    "CategoryId": 4,
    "Price": 211
  },
  {
    "Id": 6,
    "Name": "Mushroom - Morel Frozen",
    "CategoryId": 8,
    "Price": 209
  },
  {
    "Id": 7,
    "Name": "Sauce - Black Current, Dry Mix",
    "CategoryId": 6,
    "Price": 418
  },
  {
    "Id": 8,
    "Name": "Wanton Wrap",
    "CategoryId": 4,
    "Price": 415
  },
  {
    "Id": 9,
    "Name": "Bread - Roll, Calabrese",
    "CategoryId": 7,
    "Price": 285
  },
  {
    "Id": 10,
    "Name": "Beef - Top Butt Aaa",
    "CategoryId": 7,
    "Price": 277
  },
  {
    "Id": 11,
    "Name": "Sauce - Demi Glace",
    "CategoryId": 9,
    "Price": 299
  },
  {
    "Id": 12,
    "Name": "Cumin - Whole",
    "CategoryId": 1,
    "Price": 227
  },
  {
    "Id": 13,
    "Name": "Cheese - Augre Des Champs",
    "CategoryId": 5,
    "Price": 179
  },
  {
    "Id": 14,
    "Name": "Cake - Pancake",
    "CategoryId": 3,
    "Price": 408
  },
  {
    "Id": 15,
    "Name": "Apple - Fuji",
    "CategoryId": 6,
    "Price": 499
  },
  {
    "Id": 16,
    "Name": "Sachet",
    "CategoryId": 4,
    "Price": 220
  },
  {
    "Id": 17,
    "Name": "Salt - Celery",
    "CategoryId": 2,
    "Price": 138
  },
  {
    "Id": 18,
    "Name": "Oxtail - Cut",
    "CategoryId": 3,
    "Price": 389
  },
  {
    "Id": 19,
    "Name": "Beer - Blue Light",
    "CategoryId": 7,
    "Price": 371
  },
  {
    "Id": 20,
    "Name": "Towel Multifold",
    "CategoryId": 2,
    "Price": 130
  },
  {
    "Id": 21,
    "Name": "Beer - Rickards Red",
    "CategoryId": 7,
    "Price": 287
  },
  {
    "Id": 22,
    "Name": "Bagel - Everything Presliced",
    "CategoryId": 3,
    "Price": 325
  },
  {
    "Id": 23,
    "Name": "Cabbage Roll",
    "CategoryId": 10,
    "Price": 106
  },
  {
    "Id": 24,
    "Name": "Tortillas - Flour, 8",
    "CategoryId": 4,
    "Price": 124
  },
  {
    "Id": 25,
    "Name": "Five Alive Citrus",
    "CategoryId": 3,
    "Price": 342
  },
  {
    "Id": 26,
    "Name": "Nut - Peanut, Roasted",
    "CategoryId": 4,
    "Price": 135
  },
  {
    "Id": 27,
    "Name": "Pants Custom Dry Clean",
    "CategoryId": 4,
    "Price": 126
  },
  {
    "Id": 28,
    "Name": "Versatainer Nc - 9388",
    "CategoryId": 6,
    "Price": 126
  },
  {
    "Id": 29,
    "Name": "Coffee - Frthy Coffee Crisp",
    "CategoryId": 9,
    "Price": 326
  },
  {
    "Id": 30,
    "Name": "Soup - Campbells, Classic Chix",
    "CategoryId": 1,
    "Price": 131
  },
  {
    "Id": 31,
    "Name": "Cookie - Oatmeal",
    "CategoryId": 2,
    "Price": 431
  },
  {
    "Id": 32,
    "Name": "Creme De Banane - Marie",
    "CategoryId": 2,
    "Price": 254
  },
  {
    "Id": 33,
    "Name": "Container - Hngd Cll Blk 7x7x3",
    "CategoryId": 7,
    "Price": 338
  },
  {
    "Id": 34,
    "Name": "Bread - Bistro Sour",
    "CategoryId": 3,
    "Price": 107
  },
  {
    "Id": 35,
    "Name": "Chutney Sauce - Mango",
    "CategoryId": 10,
    "Price": 263
  },
  {
    "Id": 36,
    "Name": "Beef - Top Butt Aaa",
    "CategoryId": 7,
    "Price": 148
  },
  {
    "Id": 37,
    "Name": "Parsley Italian - Fresh",
    "CategoryId": 8,
    "Price": 186
  },
  {
    "Id": 38,
    "Name": "Soup - Campbells, Classic Chix",
    "CategoryId": 4,
    "Price": 464
  },
  {
    "Id": 39,
    "Name": "Rice - Sushi",
    "CategoryId": 4,
    "Price": 337
  },
  {
    "Id": 40,
    "Name": "Cheese - Cheddarsliced",
    "CategoryId": 7,
    "Price": 127
  },
  {
    "Id": 41,
    "Name": "Kahlua",
    "CategoryId": 7,
    "Price": 327
  },
  {
    "Id": 42,
    "Name": "Goulash Seasoning",
    "CategoryId": 3,
    "Price": 293
  },
  {
    "Id": 43,
    "Name": "Island Oasis - Lemonade",
    "CategoryId": 10,
    "Price": 217
  },
  {
    "Id": 44,
    "Name": "Cucumber - English",
    "CategoryId": 3,
    "Price": 109
  },
  {
    "Id": 45,
    "Name": "Puree - Guava",
    "CategoryId": 4,
    "Price": 111
  },
  {
    "Id": 46,
    "Name": "Bread - Burger",
    "CategoryId": 3,
    "Price": 364
  },
  {
    "Id": 47,
    "Name": "Cafe Royale",
    "CategoryId": 7,
    "Price": 443
  },
  {
    "Id": 48,
    "Name": "Truffle Shells - Semi - Sweet",
    "CategoryId": 2,
    "Price": 350
  },
  {
    "Id": 49,
    "Name": "Pasta - Orzo, Dry",
    "CategoryId": 2,
    "Price": 123
  },
  {
    "Id": 50,
    "Name": "Water - Spring 1.5lit",
    "CategoryId": 8,
    "Price": 268
  },
  {
    "Id": 51,
    "Name": "Clams - Littleneck, Whole",
    "CategoryId": 10,
    "Price": 367
  },
  {
    "Id": 52,
    "Name": "Squid - U - 10 Thailand",
    "CategoryId": 8,
    "Price": 321
  },
  {
    "Id": 53,
    "Name": "Leeks - Baby, White",
    "CategoryId": 1,
    "Price": 372
  },
  {
    "Id": 54,
    "Name": "Vaccum Bag - 14x20",
    "CategoryId": 8,
    "Price": 219
  },
  {
    "Id": 55,
    "Name": "Chick Peas - Dried",
    "CategoryId": 6,
    "Price": 370
  },
  {
    "Id": 56,
    "Name": "Sherbet - Raspberry",
    "CategoryId": 1,
    "Price": 385
  },
  {
    "Id": 57,
    "Name": "Chestnuts - Whole,canned",
    "CategoryId": 2,
    "Price": 469
  },
  {
    "Id": 58,
    "Name": "Lid Coffee Cup 8oz Blk",
    "CategoryId": 6,
    "Price": 316
  },
  {
    "Id": 59,
    "Name": "Bread - Crusty Italian Poly",
    "CategoryId": 9,
    "Price": 457
  },
  {
    "Id": 60,
    "Name": "Cheese - Bakers Cream Cheese",
    "CategoryId": 2,
    "Price": 232
  },
  {
    "Id": 61,
    "Name": "Flour - Masa De Harina Mexican",
    "CategoryId": 9,
    "Price": 387
  },
  {
    "Id": 62,
    "Name": "Cookie - Oreo 100x2",
    "CategoryId": 5,
    "Price": 300
  },
  {
    "Id": 63,
    "Name": "Cabbage - Red",
    "CategoryId": 8,
    "Price": 433
  },
  {
    "Id": 64,
    "Name": "Rum - Light, Captain Morgan",
    "CategoryId": 6,
    "Price": 110
  },
  {
    "Id": 65,
    "Name": "Avocado",
    "CategoryId": 9,
    "Price": 190
  },
  {
    "Id": 66,
    "Name": "Truffle Cups Green",
    "CategoryId": 4,
    "Price": 149
  },
  {
    "Id": 67,
    "Name": "Langers - Ruby Red Grapfruit",
    "CategoryId": 5,
    "Price": 340
  },
  {
    "Id": 68,
    "Name": "Milk - Skim",
    "CategoryId": 7,
    "Price": 287
  },
  {
    "Id": 69,
    "Name": "Coke - Diet, 355 Ml",
    "CategoryId": 9,
    "Price": 153
  },
  {
    "Id": 70,
    "Name": "Apple - Delicious, Golden",
    "CategoryId": 4,
    "Price": 248
  },
  {
    "Id": 71,
    "Name": "Mayonnaise - Individual Pkg",
    "CategoryId": 4,
    "Price": 280
  },
  {
    "Id": 72,
    "Name": "Flour - Teff",
    "CategoryId": 9,
    "Price": 238
  },
  {
    "Id": 73,
    "Name": "Beer - True North Lager",
    "CategoryId": 10,
    "Price": 162
  },
  {
    "Id": 74,
    "Name": "Fish - Soup Base, Bouillon",
    "CategoryId": 9,
    "Price": 292
  },
  {
    "Id": 75,
    "Name": "Muffin - Zero Transfat",
    "CategoryId": 10,
    "Price": 198
  },
  {
    "Id": 76,
    "Name": "Lobster - Base",
    "CategoryId": 9,
    "Price": 467
  },
  {
    "Id": 77,
    "Name": "Red Currants",
    "CategoryId": 5,
    "Price": 422
  },
  {
    "Id": 78,
    "Name": "Shrimp - Black Tiger 6 - 8",
    "CategoryId": 8,
    "Price": 119
  },
  {
    "Id": 79,
    "Name": "Gherkin - Sour",
    "CategoryId": 9,
    "Price": 403
  },
  {
    "Id": 80,
    "Name": "Chips - Potato Jalapeno",
    "CategoryId": 4,
    "Price": 211
  },
  {
    "Id": 81,
    "Name": "Cake Circle, Foil, Scallop",
    "CategoryId": 2,
    "Price": 160
  },
  {
    "Id": 82,
    "Name": "Lobster - Tail, 3 - 4 Oz",
    "CategoryId": 10,
    "Price": 358
  },
  {
    "Id": 83,
    "Name": "Coffee - Ristretto Coffee Capsule",
    "CategoryId": 1,
    "Price": 127
  },
  {
    "Id": 84,
    "Name": "Beans - Kidney White",
    "CategoryId": 4,
    "Price": 165
  },
  {
    "Id": 85,
    "Name": "Scampi Tail",
    "CategoryId": 2,
    "Price": 144
  },
  {
    "Id": 86,
    "Name": "Wine - Ruffino Chianti Classico",
    "CategoryId": 3,
    "Price": 104
  },
  {
    "Id": 87,
    "Name": "Coffee Cup 8oz 5338cd",
    "CategoryId": 7,
    "Price": 242
  },
  {
    "Id": 88,
    "Name": "Cup - 3.5oz, Foam",
    "CategoryId": 8,
    "Price": 420
  },
  {
    "Id": 89,
    "Name": "Wine - Cotes Du Rhone",
    "CategoryId": 1,
    "Price": 342
  },
  {
    "Id": 90,
    "Name": "Mushroom - Porcini, Dry",
    "CategoryId": 9,
    "Price": 27
  },
  {
    "Id": 91,
    "Name": "Rum - Cream, Amarula",
    "CategoryId": 10,
    "Price": 371
  },
  {
    "Id": 92,
    "Name": "Goulash Seasoning",
    "CategoryId": 3,
    "Price": 299
  },
  {
    "Id": 93,
    "Name": "Versatainer Nc - 888",
    "CategoryId": 8,
    "Price": 301
  },
  {
    "Id": 94,
    "Name": "Pan Grease",
    "CategoryId": 7,
    "Price": 357
  },
  {
    "Id": 95,
    "Name": "Corn Shoots",
    "CategoryId": 1,
    "Price": 144
  },
  {
    "Id": 96,
    "Name": "Coffee - Decaffeinato Coffee",
    "CategoryId": 2,
    "Price": 139
  },
  {
    "Id": 97,
    "Name": "Cotton Wet Mop 16 Oz",
    "CategoryId": 6,
    "Price": 452
  },
  {
    "Id": 98,
    "Name": "Beans - Soya Bean",
    "CategoryId": 3,
    "Price": 13
  },
  {
    "Id": 99,
    "Name": "Pork - Side Ribs",
    "CategoryId": 1,
    "Price": 43
  },
  {
    "Id": 100,
    "Name": "Pate - Cognac",
    "CategoryId": 3,
    "Price": 138
  }
]