[
  {
    "title": "Stray Dogs",
    "author": "Dulce Bartaloni",
    "genre": "Drama",
    "publicationDate": "7/21/2007",
    "coverImgUrl": "convallis",
    "quantity": 1,
    "unitPrice": 82,
    "isDelete": false
  },
  {
    "title": "Torremolinos 73",
    "author": "Rodd Leak",
    "genre": "Comedy|Drama",
    "publicationDate": "9/22/1994",
    "coverImgUrl": "nulla",
    "quantity": 10,
    "unitPrice": 52,
    "isDelete": false
  },
  {
    "title": "Nicholas Nickleby",
    "author": "Maryellen De Laspee",
    "genre": "Drama|Romance",
    "publicationDate": "3/29/2015",
    "coverImgUrl": "neque",
    "quantity": 5,
    "unitPrice": 99,
    "isDelete": false
  },
  {
    "title": "Baby Face",
    "author": "Taffy Perrycost",
    "genre": "Drama",
    "publicationDate": "8/2/2012",
    "coverImgUrl": "aliquet",
    "quantity": 19,
    "unitPrice": 64,
    "isDelete": false
  },
  {
    "title": "Upstream",
    "author": "Jennee Lomansey",
    "genre": "Comedy|Drama",
    "publicationDate": "7/21/2014",
    "coverImgUrl": "platea",
    "quantity": 5,
    "unitPrice": 91,
    "isDelete": false
  },
  {
    "title": "Show Me",
    "author": "Forrest Jezzard",
    "genre": "Crime|Drama|Thriller",
    "publicationDate": "10/5/1998",
    "coverImgUrl": "adipiscing",
    "quantity": 4,
    "unitPrice": 58,
    "isDelete": false
  },
  {
    "title": "Champ, The",
    "author": "Jemmy Hargey",
    "genre": "Drama",
    "publicationDate": "3/30/2014",
    "coverImgUrl": "ut",
    "quantity": 19,
    "unitPrice": 61,
    "isDelete": false
  },
  {
    "title": "Turning Tide (En solitaire)",
    "author": "Vladimir Dudden",
    "genre": "Adventure|Drama",
    "publicationDate": "10/25/2019",
    "coverImgUrl": "amet",
    "quantity": 7,
    "unitPrice": 60,
    "isDelete": false
  },
  {
    "title": "Au revoir les enfants",
    "author": "Frasier Stood",
    "genre": "Drama",
    "publicationDate": "2/25/2005",
    "coverImgUrl": "turpis",
    "quantity": 6,
    "unitPrice": 59,
    "isDelete": false
  },
  {
    "title": "Life Is Sweet",
    "author": "Odell Sickling",
    "genre": "Comedy|Drama",
    "publicationDate": "12/20/2018",
    "coverImgUrl": "eget",
    "quantity": 2,
    "unitPrice": 53,
    "isDelete": false
  },
  {
    "title": "Me Two (Personne aux deux personnes, La)",
    "author": "Gibb Silbert",
    "genre": "Comedy|Fantasy",
    "publicationDate": "6/8/1996",
    "coverImgUrl": "lorem",
    "quantity": 1,
    "unitPrice": 81,
    "isDelete": false
  },
  {
    "title": "Beyond Rangoon",
    "author": "Alfreda Broszkiewicz",
    "genre": "Adventure|Drama|War",
    "publicationDate": "2/20/2012",
    "coverImgUrl": "eget",
    "quantity": 17,
    "unitPrice": 100,
    "isDelete": false
  },
  {
    "title": "Zero Theorem, The",
    "author": "Bobbye Vickery",
    "genre": "Drama|Fantasy|Sci-Fi",
    "publicationDate": "5/10/1996",
    "coverImgUrl": "parturient",
    "quantity": 13,
    "unitPrice": 76,
    "isDelete": false
  },
  {
    "title": "Skylark",
    "author": "Ester Harmes",
    "genre": "Comedy|Romance",
    "publicationDate": "2/5/1998",
    "coverImgUrl": "cursus",
    "quantity": 11,
    "unitPrice": 83,
    "isDelete": false
  },
  {
    "title": "Andalusian Dog, An (Chien andalou, Un)",
    "author": "Salvidor Easterling",
    "genre": "Fantasy",
    "publicationDate": "7/3/2013",
    "coverImgUrl": "nulla",
    "quantity": 1,
    "unitPrice": 64,
    "isDelete": false
  },
  {
    "title": "Penitentiary II",
    "author": "Marsh Webster",
    "genre": "Drama",
    "publicationDate": "6/28/2003",
    "coverImgUrl": "condimentum",
    "quantity": 9,
    "unitPrice": 54,
    "isDelete": false
  },
  {
    "title": "Search and Destroy",
    "author": "Karlee Britt",
    "genre": "Comedy|Drama",
    "publicationDate": "3/13/1994",
    "coverImgUrl": "morbi",
    "quantity": 18,
    "unitPrice": 99,
    "isDelete": false
  },
  {
    "title": "Being John Malkovich",
    "author": "Moyna Sole",
    "genre": "Comedy|Drama|Fantasy",
    "publicationDate": "7/3/1997",
    "coverImgUrl": "ac",
    "quantity": 17,
    "unitPrice": 88,
    "isDelete": false
  },
  {
    "title": "Cover-Up",
    "author": "Bentley Piotrkowski",
    "genre": "Action|Thriller",
    "publicationDate": "2/4/2015",
    "coverImgUrl": "amet",
    "quantity": 12,
    "unitPrice": 90,
    "isDelete": false
  },
  {
    "title": "As it is in Heaven (Så som i himmelen)",
    "author": "Ulrica Roberts",
    "genre": "Drama|Musical|Romance",
    "publicationDate": "1/10/1998",
    "coverImgUrl": "velit",
    "quantity": 15,
    "unitPrice": 65,
    "isDelete": false
  }
]